…
Once the `bagyo` package has been installed, the `tropical_cyclones`
dataset can be loaded into R as follows:

``` r
library(bagyo)
data(package = "bagyo")

tropical_cyclones
#> # A tibble: 86 × 9
#>     year category_code category_name         name  rsmc_name start              
#>    <dbl> <fct>         <fct>                 <chr> <chr>     <dttm>             
#>  1  2017 TD            Tropical Depression   Auri… <NA>      2017-01-07 08:00:00
#>  2  2017 TD            Tropical Depression   Bisi… <NA>      2017-02-03 14:00:00
#>  3  2017 TD            Tropical Depression   Cris… <NA>      2017-04-14 14:00:00
#>  4  2017 TS            Tropical Storm        Dante Muifa     2017-04-26 08:00:00
#>  5  2017 STS           Severe Tropical Storm Emong Nanmadol  2017-07-02 02:00:00
#>  6  2017 TD            Tropical Depression   Fabi… Roke      2017-07-22 02:00:00
#>  7  2017 TY            Typhoon               Gorio Nesat     2017-07-25 14:00:00
#>  8  2017 TS            Tropical Storm        Huan… Haitang   2017-07-30 02:00:00
#>  9  2017 STS           Severe Tropical Storm Isang Hato      2017-08-20 08:00:00
#> 10  2017 TS            Tropical Storm        Joli… Pakhar    2017-08-24 14:00:00
#> # ℹ 76 more rows
#> # ℹ 3 more variables: end <dttm>, pressure <int>, speed <int>
```
…
