Data wrangling and visualisation • bagyo
…
## Get number of cyclones per month by year ----
bagyo |>
  mutate(month = month(start, label = TRUE)) |>
  group_by(month, year) |>
  count() |>
  ungroup() |>
  complete(month, year, fill = list(n = 0)) |>
  arrange(year, month)
#> # A tibble: 48 × 3
#>    month  year     n
#>    <ord> <dbl> <int>
#>  1 Jan    2017     1
#>  2 Feb    2017     1
#>  3 Mar    2017     0
#>  4 Apr    2017     2
#>  5 May    2017     0
#>  6 Jun    2017     0
#>  7 Jul    2017     4
#>  8 Aug    2017     2
#>  9 Sep    2017     4
#> 10 Oct    2017     3
#> # ℹ 38 more rows
…
