Philippine Tropical Cyclones Data — bagyo • bagyo
…
    Useful links:
https://panukatan.io/bagyo/

https://github.com/panukatan/bagyo

Report bugs at https://github.com/panukatan/bagyo/issues

    Author

    Maintainer: Ernest Guevarra ernest@guevarra.io (ORCID) [copyright holder]

    Examples

bagyo
#> # A tibble: 101 × 9
#>     year category_code category_name         name  rsmc_name start              
#>    <dbl> <fct>         <fct>                 <chr> <chr>     <dttm>             
#>  1  2017 TD            Tropical Depression   Auri… NA        2017-01-07 08:00:00
#>  2  2017 TD            Tropical Depression   Bisi… NA        2017-02-03 14:00:00
#>  3  2017 TD            Tropical Depression   Cris… NA        2017-04-14 14:00:00
#>  4  2017 TS            Tropical Storm        Dante Muifa     2017-04-26 08:00:00
#>  5  2017 STS           Severe Tropical Storm Emong Nanmadol  2017-07-02 02:00:00
#>  6  2017 TD            Tropical Depression   Fabi… Roke      2017-07-22 02:00:00
#>  7  2017 TY            Typhoon               Gorio Nesat     2017-07-25 14:00:00
#>  8  2017 TS            Tropical Storm        Huan… Haitang   2017-07-30 02:00:00
#>  9  2017 STS           Severe Tropical Storm Isang Hato      2017-08-20 08:00:00
#> 10  2017 TS            Tropical Storm        Joli… Pakhar    2017-08-24 14:00:00
#> # ℹ 91 more rows
#> # ℹ 3 more variables: end <dttm>, pressure <int>, speed <int>
…
